{
  "prepare_queue": {
    "installed": [],
    "uninstalled": []
  },
  "config_munge": {
    "files": {}
  },
  "installed_plugins": {
    "cordova-plugin-whitelist": {
      "PACKAGE_NAME": "com.Valormar.Kiosk"
    },
    "cordova-plugin-screen-orientation": {
      "PACKAGE_NAME": "com.Valormar.Kiosk"
    }
  },
  "dependent_plugins": {
    "es6-promise-plugin": {
      "PACKAGE_NAME": "com.Valormar.Kiosk"
    }
  }
}
